{
  "name": "",
  "css_prefix_text": "icon-",
  "css_use_suffix": false,
  "glyphs": [
    {
      "uid": "c64623255a4a7c72436b199b05296c4f",
      "css": "emo-happy",
      "code": 59392,
      "src": "fontelico"
    },
    {
      "uid": "1ba44825e5f10920b4e3f1d0c73f79a2",
      "css": "emo-wink",
      "code": 59393,
      "src": "fontelico"
    },
    {
      "uid": "4bb2045a2aca451705fe8a23c4a576ab",
      "css": "emo-wink2",
      "code": 59411,
      "src": "fontelico"
    },
    {
      "uid": "53ed8570225581269cd7eff5795e8bea",
      "css": "emo-unhappy",
      "code": 59407,
      "src": "fontelico"
    },
    {
      "uid": "fd59eac4d575b48eb156590b63a355fd",
      "css": "emo-sleep",
      "code": 59408,
      "src": "fontelico"
    },
    {
      "uid": "142263941b9f4cd4b2b84f1f4cd13b1d",
      "css": "emo-thumbsup",
      "code": 59412,
      "src": "fontelico"
    },
    {
      "uid": "4dd56d61fd0dab19277824da301424b3",
      "css": "emo-devil",
      "code": 59413,
      "src": "fontelico"
    },
    {
      "uid": "68e298ff2d8b25dd7f647ed64f5ae690",
      "css": "emo-surprised",
      "code": 59414,
      "src": "fontelico"
    },
    {
      "uid": "bb68a13a3574b087d4350eff0b8d48e3",
      "css": "emo-tongue",
      "code": 59415,
      "src": "fontelico"
    },
    {
      "uid": "48cc210e59ff4bc56b6c8fba6eb384b8",
      "css": "emo-coffee",
      "code": 59418,
      "src": "fontelico"
    },
    {
      "uid": "f0d3ad15d020cf187d42dd3b2295b65c",
      "css": "emo-angry",
      "code": 59416,
      "src": "fontelico"
    },
    {
      "uid": "fc92480dedc439d274d4e3e4b425edf4",
      "css": "emo-squint",
      "code": 59409,
      "src": "fontelico"
    },
    {
      "uid": "2bd5f98482d86649958312ea2ab5bb40",
      "css": "emo-laugh",
      "code": 59410,
      "src": "fontelico"
    },
    {
      "uid": "5d2d07f112b8de19f2c0dbfec3e42c05",
      "css": "spin5",
      "code": 59448,
      "src": "fontelico"
    },
    {
      "uid": "7222571caa5c15f83dcfd447c58d68d9",
      "css": "search",
      "code": 128269,
      "src": "entypo"
    },
    {
      "uid": "e335adbc2d898c7d85d40c507796e7b4",
      "css": "mail",
      "code": 9993,
      "src": "entypo"
    },
    {
      "uid": "0eabe5f8d71cc838484ff39436426d2d",
      "css": "heart",
      "code": 9829,
      "src": "entypo"
    },
    {
      "uid": "d18071bbf8f0a8cec8d1f556c91c6af0",
      "css": "heart-empty",
      "code": 9825,
      "src": "entypo"
    },
    {
      "uid": "25b34dea4784f72c710454f32ff8fa2b",
      "css": "star",
      "code": 9733,
      "src": "entypo"
    },
    {
      "uid": "0e3f1335f83cca67329b2c4bcb3aaec5",
      "css": "star-empty",
      "code": 9734,
      "src": "entypo"
    },
    {
      "uid": "bbd66ef66bb8fa9edde54d9a90b89150",
      "css": "user",
      "code": 128100,
      "src": "entypo"
    },
    {
      "uid": "ecf8edb95c3f45eb433b4cce7ba9f740",
      "css": "users",
      "code": 128101,
      "src": "entypo"
    },
    {
      "uid": "6274e0601f2feef7eced89146e708de0",
      "css": "user-add",
      "code": 59136,
      "src": "entypo"
    },
    {
      "uid": "6341ebcbe1ed1f6777c1b9527ead368e",
      "css": "video",
      "code": 127916,
      "src": "entypo"
    },
    {
      "uid": "3def559c3c39b8500882e02892b7daa8",
      "css": "picture",
      "code": 127748,
      "src": "entypo"
    },
    {
      "uid": "85017ab6ca074831a8de771b40e9640c",
      "css": "camera",
      "code": 128247,
      "src": "entypo"
    },
    {
      "uid": "2cfb3f2b46b34a1790aec0aa846297b6",
      "css": "menu",
      "code": 9776,
      "src": "entypo"
    },
    {
      "uid": "14017aae737730faeda4a6fd8fb3a5f0",
      "css": "check",
      "code": 10003,
      "src": "entypo"
    },
    {
      "uid": "c709da589c923ba3c2ad48d9fc563e93",
      "css": "cancel",
      "code": 10005,
      "src": "entypo"
    },
    {
      "uid": "c759418c008e9562944080fee617fc76",
      "css": "cancel-circled",
      "code": 10006,
      "src": "entypo"
    },
    {
      "uid": "bf45c39702763f1803b550c36a0ceb12",
      "css": "cancel-squared",
      "code": 10062,
      "src": "entypo"
    },
    {
      "uid": "70370693ada58ef0a60fa0984fe8d52a",
      "css": "plus",
      "code": 43,
      "src": "entypo"
    },
    {
      "uid": "a66cdc7278e6b33b8bd44a141f5e1a8d",
      "css": "plus-circled",
      "code": 10133,
      "src": "entypo"
    },
    {
      "uid": "9e1c33b6849ceb08db8acfaf02188b7d",
      "css": "plus-squared",
      "code": 8862,
      "src": "entypo"
    },
    {
      "uid": "1256e3054823e304d7e452a589cf8bb8",
      "css": "minus",
      "code": 45,
      "src": "entypo"
    },
    {
      "uid": "3eb93689881ad0804f87052a53edc2b6",
      "css": "minus-circled",
      "code": 10134,
      "src": "entypo"
    },
    {
      "uid": "4ffa544c1a81c905f0a8a5745d8b9faa",
      "css": "minus-squared",
      "code": 8863,
      "src": "entypo"
    },
    {
      "uid": "3a230e539a4f3b904debd04c6c155034",
      "css": "help",
      "code": 10067,
      "src": "entypo"
    },
    {
      "uid": "de9a631a7d18106aea1c89ba51b1990a",
      "css": "help-circled",
      "code": 59140,
      "src": "entypo"
    },
    {
      "uid": "63b86fedd4ee9ad2105f54f4888e7088",
      "css": "info",
      "code": 8505,
      "src": "entypo"
    },
    {
      "uid": "7e4164950ffa4990961958b2d6318658",
      "css": "info-circled",
      "code": 59141,
      "src": "entypo"
    },
    {
      "uid": "1a7104205ea96e6f40ac716d0ca72f21",
      "css": "lock",
      "code": 128274,
      "src": "entypo"
    },
    {
      "uid": "e81fc3a0d39ace6ee735d7b24eedd56d",
      "css": "lock-open",
      "code": 128275,
      "src": "entypo"
    },
    {
      "uid": "875ab0f6d417223f6ec76ff7f0a4baed",
      "css": "tag",
      "code": 59148,
      "src": "entypo"
    },
    {
      "uid": "23912d5623126e14b7b137c3ba557168",
      "css": "bookmark-1",
      "code": 59406,
      "src": "entypo"
    },
    {
      "uid": "8538a2249db7f07ae75411886732fb87",
      "css": "bookmarks",
      "code": 128209,
      "src": "entypo"
    },
    {
      "uid": "7ad4d2306ebda8452e5e3eff3cd8241c",
      "css": "thumbs-up",
      "code": 128077,
      "src": "entypo"
    },
    {
      "uid": "429fba993b729174468a9493613ad1ba",
      "css": "thumbs-down",
      "code": 128078,
      "src": "entypo"
    },
    {
      "uid": "b6fc2f656ef87275889422e19550680a",
      "css": "reply",
      "code": 59154,
      "src": "entypo"
    },
    {
      "uid": "1a4b54ba5618e5364fc47a3d26c1cf59",
      "css": "reply-all",
      "code": 59155,
      "src": "entypo"
    },
    {
      "uid": "ec347024a3640deebeeab53fd0d5ad03",
      "css": "forward",
      "code": 10150,
      "src": "entypo"
    },
    {
      "uid": "c3e5dafba1739ef33cc574c7484febf7",
      "css": "quote",
      "code": 10078,
      "src": "entypo"
    },
    {
      "uid": "390d6d13398cbf8c8c3c5493f7d34088",
      "css": "export",
      "code": 59157,
      "src": "entypo"
    },
    {
      "uid": "bcb868184ff9c35f8aef564f50c0d649",
      "css": "feather",
      "code": 10002,
      "src": "entypo"
    },
    {
      "uid": "97902f87200ce74d181044df02a0458d",
      "css": "attention",
      "code": 9888,
      "src": "entypo"
    },
    {
      "uid": "457c8e2b305e7af74c1be4f07a01ca92",
      "css": "vcard",
      "code": 59170,
      "src": "entypo"
    },
    {
      "uid": "540b6a4262be769515c79700618b4aea",
      "css": "address",
      "code": 59171,
      "src": "entypo"
    },
    {
      "uid": "a42b598e4298f3319b25a2702a02e7ff",
      "css": "location",
      "code": 59172,
      "src": "entypo"
    },
    {
      "uid": "2626e3a1bbcd90e45849af3b58a1d594",
      "css": "trash",
      "code": 59177,
      "src": "entypo"
    },
    {
      "uid": "3e617d8049807e128c80d0344ba09e37",
      "css": "rss",
      "code": 59194,
      "src": "entypo"
    },
    {
      "uid": "bc64550dd022ce21604f97309b346cea",
      "css": "cog",
      "code": 9881,
      "src": "entypo"
    },
    {
      "uid": "6a7b9d4863bb7e6c79e9457a72d689b6",
      "css": "tools",
      "code": 9874,
      "src": "entypo"
    },
    {
      "uid": "e126987944593dfee041f8e2a68145db",
      "css": "basket-2",
      "code": 59405,
      "src": "entypo"
    },
    {
      "uid": "4b20e1deee87faf4c3fab735fbd4bc1a",
      "css": "lamp",
      "code": 128161,
      "src": "entypo"
    },
    {
      "uid": "29e7f6072d5935d7818204d9b088508b",
      "css": "block",
      "code": 128683,
      "src": "entypo"
    },
    {
      "uid": "289b5f92f23acf1059c93fbf401c1ad5",
      "css": "down-open-big",
      "code": 59236,
      "src": "entypo"
    },
    {
      "uid": "884cfc3e6e2d456dd2a2ca0dbb9e6337",
      "css": "left-open-big",
      "code": 59237,
      "src": "entypo"
    },
    {
      "uid": "004882ab2d5c418c5b2060e80596279b",
      "css": "right-open-big",
      "code": 59238,
      "src": "entypo"
    },
    {
      "uid": "0805cca616b3c12714f35af4d0912c10",
      "css": "up-open-big",
      "code": 59239,
      "src": "entypo"
    },
    {
      "uid": "465bb89b6f204234e5787c326b4ae54c",
      "css": "ccw",
      "code": 10226,
      "src": "entypo"
    },
    {
      "uid": "bb46b15cb78cc4cc05d3d715d522ac4d",
      "css": "cw",
      "code": 10227,
      "src": "entypo"
    },
    {
      "uid": "97bd5542ed3e143d2ee9b60e14487615",
      "css": "list-add",
      "code": 57347,
      "src": "entypo"
    },
    {
      "uid": "414fe97e4af5215a06d29be0f2cecdf5",
      "css": "network",
      "code": 59254,
      "src": "entypo"
    },
    {
      "uid": "6a12c2b74456ea21cc984e11dec227a1",
      "css": "globe",
      "code": 127758,
      "src": "entypo"
    },
    {
      "uid": "41d534223ef447a01af3e2f629ec70eb",
      "css": "leaf",
      "code": 127810,
      "src": "entypo"
    },
    {
      "uid": "489090690d8bd1745e365485946e20a8",
      "css": "megaphone-1",
      "code": 59404,
      "src": "entypo"
    },
    {
      "uid": "8ea66d97faf9816abd34f48f3f26d216",
      "css": "bucket",
      "code": 59222,
      "src": "entypo"
    },
    {
      "uid": "d4939d1f4e5f03f6e58900b2ac8f1c6c",
      "css": "thermometer",
      "code": 59223,
      "src": "entypo"
    },
    {
      "uid": "2bbde1076919db3d1dcc7f6b43d19bd4",
      "css": "traffic-cone",
      "code": 59299,
      "src": "entypo"
    },
    {
      "uid": "538531af0e023b15882c505ee2297cbe",
      "css": "vimeo",
      "code": 62214,
      "src": "entypo"
    },
    {
      "uid": "6569bd1801e232180221ba0f6a4b8b27",
      "css": "vimeo-circled",
      "code": 62215,
      "src": "entypo"
    },
    {
      "uid": "d090355c31f497b61d676416c1fd39fb",
      "css": "twitter",
      "code": 62217,
      "src": "entypo"
    },
    {
      "uid": "0419da6446cb4f31093e2022793571ca",
      "css": "twitter-circled",
      "code": 62218,
      "src": "entypo"
    },
    {
      "uid": "bc50457410acf467b8b5721240768742",
      "css": "facebook",
      "code": 62220,
      "src": "entypo"
    },
    {
      "uid": "ce1d525f3f31024c6a6b38f5e9a88953",
      "css": "facebook-circled",
      "code": 62221,
      "src": "entypo"
    },
    {
      "uid": "47bd87a650e95b97f947d275ed968efe",
      "css": "facebook-squared",
      "code": 62222,
      "src": "entypo"
    },
    {
      "uid": "d491462e64eb5b8c4f064108a2ff1780",
      "css": "tumblr",
      "code": 62229,
      "src": "entypo"
    },
    {
      "uid": "72a6237752f5cd00a107d097adac9ce3",
      "css": "tumblr-circled",
      "code": 62230,
      "src": "entypo"
    },
    {
      "uid": "7132e1233bc16cd1b6efe7e29d3613a5",
      "css": "linkedin",
      "code": 62232,
      "src": "entypo"
    },
    {
      "uid": "21adad41ffebf469b2370d26bcb8a3c4",
      "css": "linkedin-circled",
      "code": 62233,
      "src": "entypo"
    },
    {
      "uid": "28ccaf022b8363aeaa5b86f66e1f5173",
      "css": "skype",
      "code": 62265,
      "src": "entypo"
    },
    {
      "uid": "8354734770d837204e6a004885240d2e",
      "css": "skype-circled",
      "code": 62266,
      "src": "entypo"
    },
    {
      "uid": "8d584f31a5d54de313f1f3da28708ec0",
      "css": "paypal",
      "code": 62274,
      "src": "entypo"
    },
    {
      "uid": "cfaa8fbbdcc7bb8d636cb974aad1f9b9",
      "css": "glass",
      "code": 127864,
      "src": "fontawesome"
    },
    {
      "uid": "8b80d36d4ef43889db10bc1f0dc9a862",
      "css": "user-1",
      "code": 59395,
      "src": "fontawesome"
    },
    {
      "uid": "31972e4e9d080eaa796290349ae6c1fd",
      "css": "users-1",
      "code": 59394,
      "src": "fontawesome"
    },
    {
      "uid": "0f99ab40ab0b4d64a74f2d0deeb03e42",
      "css": "videocam",
      "code": 127909,
      "src": "fontawesome"
    },
    {
      "uid": "381da2c2f7fd51f8de877c044d7f439d",
      "css": "picture-1",
      "code": 59403,
      "src": "fontawesome"
    },
    {
      "uid": "d7271d490b71df4311e32cdacae8b331",
      "css": "home",
      "code": 8962,
      "src": "fontawesome"
    },
    {
      "uid": "0ddd3e8201ccc7d41f7b7c9d27eca6c1",
      "css": "link-1",
      "code": 128279,
      "src": "fontawesome"
    },
    {
      "uid": "c1f1975c885aa9f3dad7810c53b82074",
      "css": "lock-1",
      "code": 59401,
      "src": "fontawesome"
    },
    {
      "uid": "657ab647f6248a6b57a5b893beaf35a9",
      "css": "lock-open-1",
      "code": 59402,
      "src": "fontawesome"
    },
    {
      "uid": "3db5347bd219f3bce6025780f5d9ef45",
      "css": "tag-1",
      "code": 59396,
      "src": "fontawesome"
    },
    {
      "uid": "a3f89e106175a5c5c4e9738870b12e55",
      "css": "tags",
      "code": 59149,
      "src": "fontawesome"
    },
    {
      "uid": "f04a5d24e9e659145b966739c4fde82a",
      "css": "bookmark",
      "code": 128278,
      "src": "fontawesome"
    },
    {
      "uid": "2f5ef6f6b7aaebc56458ab4e865beff5",
      "css": "bookmark-empty",
      "code": 61591,
      "src": "fontawesome"
    },
    {
      "uid": "f5999a012fc3752386635ec02a858447",
      "css": "download-cloud",
      "code": 61677,
      "src": "fontawesome"
    },
    {
      "uid": "ab95e1351ebaec5850101097cbf7097f",
      "css": "quote-left",
      "code": 61709,
      "src": "fontawesome"
    },
    {
      "uid": "d745d7c05b94e609decabade2cae12cb",
      "css": "quote-right",
      "code": 61710,
      "src": "fontawesome"
    },
    {
      "uid": "d35a1d35efeb784d1dc9ac18b9b6c2b6",
      "css": "pencil",
      "code": 9998,
      "src": "fontawesome"
    },
    {
      "uid": "41087bc74d4b20b55059c60a33bf4008",
      "css": "edit",
      "code": 9997,
      "src": "fontawesome"
    },
    {
      "uid": "9c1376672bb4f1ed616fdd78a23667e9",
      "css": "comment-empty",
      "code": 61669,
      "src": "fontawesome"
    },
    {
      "uid": "31951fbb9820ed0690f675b3d495c8da",
      "css": "chat-empty",
      "code": 61670,
      "src": "fontawesome"
    },
    {
      "uid": "c76b7947c957c9b78b11741173c8349b",
      "css": "attention-1",
      "code": 59399,
      "src": "fontawesome"
    },
    {
      "uid": "f48ae54adfb27d8ada53d0fd9e34ee10",
      "css": "trash-1",
      "code": 59398,
      "src": "fontawesome"
    },
    {
      "uid": "9f7e588c66cfd6891f6f507cf6f6596b",
      "css": "phone",
      "code": 128222,
      "src": "fontawesome"
    },
    {
      "uid": "e99461abfef3923546da8d745372c995",
      "css": "cog-1",
      "code": 59397,
      "src": "fontawesome"
    },
    {
      "uid": "98687378abd1faf8f6af97c254eb6cd6",
      "css": "cog-alt",
      "code": 9967,
      "src": "fontawesome"
    },
    {
      "uid": "9affc98d652b86628d650ee58dbf0357",
      "css": "basket",
      "code": 59197,
      "src": "fontawesome"
    },
    {
      "uid": "3c73d058e4589b65a8d959c0fc8f153d",
      "css": "resize-horizontal-1",
      "code": 11021,
      "src": "fontawesome"
    },
    {
      "uid": "91b141af48402743aa3503d0a7007132",
      "css": "eject",
      "code": 11983,
      "src": "fontawesome"
    },
    {
      "uid": "ab656e280958018a7859eba9a1eabbc7",
      "css": "award",
      "code": 127945,
      "src": "fontawesome"
    },
    {
      "uid": "25a81737628d1e654a30ad412d7d6dd7",
      "css": "align-justify",
      "code": 59265,
      "src": "fontawesome"
    },
    {
      "uid": "a2a74f5e7b7d9ba054897d8c795a326a",
      "css": "list-bullet",
      "code": 61642,
      "src": "fontawesome"
    },
    {
      "uid": "8772331a9fec983cdb5d72902a6f9e0e",
      "css": "scissors",
      "code": 9986,
      "src": "fontawesome"
    },
    {
      "uid": "053b757d97042e1c94276200c7b64b91",
      "css": "briefcase",
      "code": 128188,
      "src": "fontawesome"
    },
    {
      "uid": "5ccf1ed249fd9d723ec1ce8629a9f507",
      "css": "suitcase",
      "code": 61682,
      "src": "fontawesome"
    },
    {
      "uid": "9755f76110ae4d12ac5f9466c9152031",
      "css": "book",
      "code": 128213,
      "src": "fontawesome"
    },
    {
      "uid": "28f308aa0a07a67433f54c089c400d82",
      "css": "gift",
      "code": 127873,
      "src": "fontawesome"
    },
    {
      "uid": "3d8cc269fdad8a4cda55a20542a84e5c",
      "css": "credit-card",
      "code": 128179,
      "src": "fontawesome"
    },
    {
      "uid": "3e674995cacc2b09692c096ea7eb6165",
      "css": "megaphone",
      "code": 128227,
      "src": "fontawesome"
    },
    {
      "uid": "f2aa28a2548ed3d2be718d087b65ee21",
      "css": "key",
      "code": 128273,
      "src": "fontawesome"
    },
    {
      "uid": "d61be837c725a299b432dcbee2ecdae6",
      "css": "certificate",
      "code": 61603,
      "src": "fontawesome"
    },
    {
      "uid": "0f444c61b0d2c9966016d7ddb12f5837",
      "css": "beaker",
      "code": 61635,
      "src": "fontawesome"
    },
    {
      "uid": "ff70f7b3228702e0d590e60ed3b90bea",
      "css": "magic",
      "code": 61648,
      "src": "fontawesome"
    },
    {
      "uid": "7f3d8ff1d5f6ee019f0c00ed7a86caec",
      "css": "truck",
      "code": 128666,
      "src": "fontawesome"
    },
    {
      "uid": "30b79160618d99ce798e4bd11cafe3fe",
      "css": "food",
      "code": 61685,
      "src": "fontawesome"
    },
    {
      "uid": "9e8430ce95f56720ae8e7afba291df88",
      "css": "user-md",
      "code": 61680,
      "src": "fontawesome"
    },
    {
      "uid": "906348dc798a0d42715cc97c875e3ac6",
      "css": "twitter-squared",
      "code": 62212,
      "src": "fontawesome"
    },
    {
      "uid": "627abcdb627cb1789e009c08e2678ef9",
      "css": "twitter-1",
      "code": 61593,
      "src": "fontawesome"
    },
    {
      "uid": "4743b088aa95d6f3b6b990e770d3b647",
      "css": "facebook-squared-1",
      "code": 62216,
      "src": "fontawesome"
    },
    {
      "uid": "8e04c98c8f5ca0a035776e3001ad2638",
      "css": "facebook-1",
      "code": 61594,
      "src": "fontawesome"
    },
    {
      "uid": "1145676a91138011729fa2909997af66",
      "css": "linkedin-squared",
      "code": 59417,
      "src": "fontawesome"
    },
    {
      "uid": "e9107949dd6c9e8ab2b29ae07156e38c",
      "css": "linkedin-1",
      "code": 61665,
      "src": "fontawesome"
    },
    {
      "uid": "f0cf7db1b03cb65adc450aa3bdaf8c4d",
      "css": "gplus-squared",
      "code": 61652,
      "src": "fontawesome"
    },
    {
      "uid": "b8d0c7d76e87b94882329a88e8e43d3d",
      "css": "gplus",
      "code": 61653,
      "src": "fontawesome"
    },
    {
      "uid": "e3699d145bd628d2a35d4a508b616f0c",
      "css": "equalizer",
      "code": 59285,
      "src": "iconic"
    },
    {
      "uid": "b3a9e2dab4d19ea3b2f628242c926bfe",
      "css": "brush",
      "code": 59290,
      "src": "iconic"
    },
    {
      "uid": "5ad5e617d3c6eb7da3df417a47b27dba",
      "css": "brush-alt",
      "code": 59291,
      "src": "iconic"
    },
    {
      "uid": "n1ld0w7zazkxq7bsqtksyez86sdufqgd",
      "css": "globe-alt",
      "code": 127760,
      "src": "typicons"
    },
    {
      "uid": "vqyhv5kmwcj9zxq28dhq5npykr2k39co",
      "css": "basket-1",
      "code": 59400,
      "src": "modernpics"
    },
    {
      "uid": "s51at1xi1fkaomxvp6dqaax5jmyhtn4h",
      "css": "basket-alt",
      "code": 59310,
      "src": "modernpics"
    },
    {
      "uid": "fhpup8jff2yw9kmuwavhyqxogczcbbhj",
      "css": "dollar",
      "code": 128181,
      "src": "modernpics"
    },
    {
      "uid": "b69ac48f8ad98e786047ff3d33101045",
      "css": "windy-rain-inv",
      "code": 33,
      "src": "meteocons"
    },
    {
      "uid": "87cf185e0420ff98e04406c0fbb873eb",
      "css": "snow-inv",
      "code": 34,
      "src": "meteocons"
    },
    {
      "uid": "f1315f7ea135cbea7966cce0e7c10ce0",
      "css": "snow-heavy-inv",
      "code": 35,
      "src": "meteocons"
    },
    {
      "uid": "ab5c31256cdd1f6b2d6de7202936f5a1",
      "css": "hail-inv",
      "code": 36,
      "src": "meteocons"
    },
    {
      "uid": "8f1bbb4667a8372dc4bb7de767f22f11",
      "css": "clouds-inv",
      "code": 37,
      "src": "meteocons"
    },
    {
      "uid": "a6a5b2ea227f86157ba54ae543785161",
      "css": "compass",
      "code": 40,
      "src": "meteocons"
    },
    {
      "uid": "053a1eaf96184e74876f45bd0f4970eb",
      "css": "na",
      "code": 41,
      "src": "meteocons"
    },
    {
      "uid": "c1306ee779029bed4f5a2b9b4f5c79e8",
      "css": "sun-inv",
      "code": 49,
      "src": "meteocons"
    },
    {
      "uid": "2adfda136b09532bd8174b025b67fe87",
      "css": "moon-inv",
      "code": 50,
      "src": "meteocons"
    },
    {
      "uid": "2c304ff49075ec9647f498504651abf5",
      "css": "cloud-sun-inv",
      "code": 51,
      "src": "meteocons"
    },
    {
      "uid": "c823149b79158a2bd56d802a6a6f1d1c",
      "css": "cloud-moon-inv",
      "code": 52,
      "src": "meteocons"
    },
    {
      "uid": "7162ef3c04c51e39b8670cfedb15bcc3",
      "css": "cloud-inv",
      "code": 53,
      "src": "meteocons"
    },
    {
      "uid": "92234661a134ed625a779c534b242b3d",
      "css": "drizzle-inv",
      "code": 55,
      "src": "meteocons"
    },
    {
      "uid": "8d8a2d9bcc41c7ac794e83ffbb919c3c",
      "css": "rain-inv",
      "code": 56,
      "src": "meteocons"
    },
    {
      "uid": "be6c21cbc48e60a39e80f8b2c33e360e",
      "css": "windy-inv",
      "code": 57,
      "src": "meteocons"
    },
    {
      "uid": "c55fdf978f617992b43ee7cbaa6ef87e",
      "css": "menu-1",
      "code": 61448,
      "src": "mfglabs"
    },
    {
      "uid": "2b6bf06e87a223ccd1ddc1874932ca86",
      "css": "th-thumb",
      "code": 61450,
      "src": "mfglabs"
    },
    {
      "uid": "5eb43711f62fb4dcbef10d0224c28065",
      "css": "th-thumb-empty",
      "code": 61451,
      "src": "mfglabs"
    },
    {
      "uid": "1b58555745e7378f7634ee7c63eada46",
      "css": "th-list",
      "code": 61449,
      "src": "mfglabs"
    },
    {
      "uid": "018571e697f22ca41803de480e10ed10",
      "css": "home-1",
      "code": 59419,
      "src": "mfglabs"
    },
    {
      "uid": "1fb8776fe6f1d3bbf970996fdfcf0f94",
      "css": "link",
      "code": 61563,
      "src": "mfglabs"
    },
    {
      "uid": "9746a4ace95e1797c94cd2fe05c22485",
      "css": "attach",
      "code": 61546,
      "src": "mfglabs"
    },
    {
      "uid": "7997220c4eb58edae98e04de570089c2",
      "css": "lock-2",
      "code": 62738,
      "src": "mfglabs"
    },
    {
      "uid": "b10e25220faa78c808527a4ba8b5c0f9",
      "css": "lock-alt",
      "code": 62736,
      "src": "mfglabs"
    },
    {
      "uid": "e67bcab050d99eb04d44027139ae05f5",
      "css": "lock-open-2",
      "code": 62739,
      "src": "mfglabs"
    },
    {
      "uid": "8167f6441d2557a90d717a7fc3248760",
      "css": "lock-open-alt",
      "code": 61557,
      "src": "mfglabs"
    },
    {
      "uid": "117d7f4e196f826847929c6550734615",
      "css": "globe-1",
      "code": 61464,
      "src": "mfglabs"
    },
    {
      "uid": "c5fd68d8253e605e7a78a0c75255b692",
      "css": "math",
      "code": 61466,
      "src": "mfglabs"
    },
    {
      "uid": "da72ab64b02d997ff0521339f2997233",
      "css": "hash",
      "code": 61481,
      "src": "mfglabs"
    },
    {
      "uid": "5f1e8c36dffb553902e0e5c0c71faf6b",
      "css": "credit-card-1",
      "code": 59423,
      "src": "maki"
    },
    {
      "uid": "f5281239de27061e68f4367ba3efee15",
      "css": "paypal-1",
      "code": 59422,
      "src": "zocial"
    },
    {
      "uid": "34e5d8943b23023d2a9515cfa9173506",
      "css": "quote-1",
      "code": 57428,
      "src": "elusive"
    },
    {
      "uid": "8489d61496923b1159b01d8a0a7b2df0",
      "css": "volume-off",
      "code": 57356,
      "src": "elusive"
    },
    {
      "uid": "599d6c088f4a1c64611b989459d65f6b",
      "css": "lightbulb",
      "code": 57566,
      "src": "elusive"
    },
    {
      "uid": "f8d887df13c5f95ede5fb0e2cdb042b1",
      "css": "resize-horizontal",
      "code": 57416,
      "src": "elusive"
    },
    {
      "uid": "8c23ecabc7d5df3666a038ad7c699421",
      "css": "shuffle",
      "code": 57426,
      "src": "elusive"
    },
    {
      "uid": "dbcb2495fc2b934b13ac6992e0429e2f",
      "css": "text-width",
      "code": 57381,
      "src": "elusive"
    },
    {
      "uid": "310c0c174fb8843a83ad0a7c6da85c56",
      "css": "briefcase-1",
      "code": 57613,
      "src": "elusive"
    },
    {
      "uid": "84ab84920cd038d5b4b003f63e59aac6",
      "css": "tasks",
      "code": 59421,
      "src": "elusive"
    },
    {
      "uid": "10fdd98fb50c590b805a3ad6ff9c55f5",
      "css": "asl",
      "code": 57517,
      "src": "elusive"
    },
    {
      "uid": "3e2bd88137dd7ceec98b4bfd8640e5ec",
      "css": "params",
      "code": 57375,
      "src": "linecons"
    },
    {
      "uid": "862d4faacb164c0412cb3249d43d5d39",
      "css": "t-shirt",
      "code": 57383,
      "src": "linecons"
    },
    {
      "uid": "c23a66951b34ed7d449688d559afb213",
      "css": "video-1",
      "code": 59420,
      "src": "websymbols"
    },
    {
      "uid": "bb1090404a4d33340a9ad7302ef8b6e8",
      "css": "archive",
      "code": 59192,
      "src": "websymbols"
    }
  ]
}